{
"": [
    ["<Control-a>", "", {}, "-"],
    ["<Control-f>", "", {}, "-"],
    ["<Control-F>", "", {}, "-"],
    ["<Control-s>", "", {}, "-"],
    ["<Alt-s>", "", {}, "-"],
    ["<Alt-A>", "", {}, "-"],
    ["<Alt-E>", "", {}, "-"],
    ["<Alt-I>", "", {}, "-"],
    ["<Alt-O>", "", {}, "-"],
    ["<Alt-U>", "", {}, "-"],
    ["<Alt-Adiaeresis>", "", {}, "-"],
    ["<Alt-Odiaeresis>", "", {}, "-"],
    ["<Alt-Udiaeresis>", "", {}, "-"],
    ["<Alt-e>", "", {}, "-"],
    ["<Alt-adiaeresis>", "", {}, "-"],
    ["<Alt-c>", "", {}, "-"],
    ["<Alt-C>", "", {}, "-"],
    ["<Control-a>", "select_all_on_event", {}, ""],
    ["<Control-f>", "lay_archivarius_on_event", {}, ""],
    ["<Control-F>", "search_in_web_on_event", {}, ""],
    ["<Control-s>", "save_on_event", {}, ""],
    ["<Alt-s>", "insert_on_event", {"val": "ſ"}, ""],
    ["<Alt-A>", "insert_on_event", {"val": "ā"}, ""],
    ["<Alt-E>", "insert_on_event", {"val": "ē"}, ""],
    ["<Alt-I>", "insert_on_event", {"val": "ī"}, ""],
    ["<Alt-O>", "insert_on_event", {"val": "ō"}, ""],
    ["<Alt-U>", "insert_on_event", {"val": "ū"}, ""],
    ["<Alt-Adiaeresis>", "insert_on_event", {"val": "ǟ"}, ""],
    ["<Alt-Odiaeresis>", "insert_on_event", {"val": "ȫ"}, ""],
    ["<Alt-Udiaeresis>", "insert_on_event", {"val": "ǖ"}, ""],
    ["<Alt-e>", "insert_on_event", {"val": "ę"}, ""],
    ["<Alt-adiaeresis>", "insert_on_event", {"val": "ė"}, ""],
    ["<Alt-c>", "insert_on_event", {"val": "ȥ"}, ""],
    ["<Alt-C>", "insert_on_event", {"val": "ƶ"}, ""]
    ],
"MainText": [
    ["<<Modified>>",      "track_modification_on_event", {}, ""],
    ["<<Selection>>",     "set_sel_ever_visible_tag_on_event", {}, ""],
    ["<Button-3>",        "lay_muse_on_press", {}, ""],
    ["<Control-y>",       "lay_muse_on_press", {}, ""],
    ["<Control-z>",       "undo", {}, ""],
    ["<Control-Z>",       "redo", {}, ""],
    ["<Double-Button-1>", "lay_muse_on_press", {}, ""]
    ],
"MuseCheckbutton": [
    ["<Button-3>", "change_annotation_on_button_3", {}, ""]
    ],
"MuseItem": [
    ["<KeyRelease>", "set_listbox_on_item_input", {}, ""],
    ["<Return>",     "set_checkbutton_on_item_return", {}, ""]
    ],
"MuseListbox": [
    ["<<ListboxSelect>>", "set_item_on_listbox_select", {}, ""],
    ["<Double-Button-1>", "set_checkbutton_on_listbox_select", {}, ""]
    ]
}
